name="Timeline: No AE and DIP Costs + No Colonial Nations"
tags={
	"Gameplay"
	"Fixes"
}
picture="timeline-no-ae-cn.png"
supported_version="1.30.*.*"
path="C:/Users/Alexa/Documents/Paradox Interactive/Europa Universalis IV/mod/timeline-no-ae-cn"
remote_file_id="578137959"